--a

Content-Type: multipart/mixed;boundary=b

--b
Content-Type:application/http
Content-Transfer-Encoding:binary
POST /b1s/v1/USERS

{
    "Code":"1",
	"Name":"1",
	"U_CRA_employee_code":"",
	"U_CRA_password":"admin",
	"U_CRA_role_code":"1",
	"U_CRA_company":"BFI",
	"U_CRA_is_active":1,
	"U_CRA_created_at":"2020-01-17",
	"U_CRA_created_time":"10:05",
	"U_CRA_created_by":"1"
}

--b--
--a--